{
  "items": [
    {
      "id": 1,
      "name": "Mario"
    },
    {
      "id": 2,
      "name": "Lucio"
    },
    {
      "name": "ciao",
      "id": 3
    },
    {
      "name": "a",
      "id": 4
    },
    {
      "name": "c",
      "id": 6
    }
  ],
  "tweets": [
    {
      "id": 1,
      "name": "Fabionski",
      "tweets": 1050
    },
    {
      "id": 2,
      "name": "Lorenzo",
      "tweets": 50
    }
  ],
  "products": [
    {
      "id": 1,
      "name": "Nutella",
      "price": 1
    },
    {
      "id": 2,
      "name": "Milk",
      "price": 503
    },
    {
      "name": "Chocolate",
      "price": 100,
      "id": 4
    }
  ]
}